[
  {
    "id": "1",
    "firstName": "Giselle",
    "lastName": "Muñoz",
    "phoneNumber": "3012117716",
    "email": "gisselle@fullstacklabs.co",
    "notes": "Creating Remarkable Poster Prints Through 4 Color Poster Printing"
  },
  {
    "id": "2",
    "firstName": "Dean",
    "lastName": "Barton",
    "phoneNumber": "3012117717",
    "email": "dean@fullstacklabs.co",
    "notes": "Creating Remarkable Poster Prints Through 4 Color Poster Printing"
  },
  {
    "id": "3",
    "firstName": "Mittie",
    "lastName": "Clayton",
    "phoneNumber": "3012117718",
    "email": "mittie@fullstacklabs.co",
    "notes": "Creating Remarkable Poster Prints Through 4 Color Poster Printing"
  },
  {
    "id": "4",
    "firstName": "Wesley",
    "lastName": "Torres",
    "phoneNumber": "3012117719",
    "email": "wesley@fullstacklabs.co",
    "notes": "Creating Remarkable Poster Prints Through 4 Color Poster Printing"
  },
  {
    "id": "5",
    "firstName": "Troy",
    "lastName": "Rowe",
    "phoneNumber": "3012117720",
    "email": "troy@fullstacklabs.co",
    "notes": "Creating Remarkable Poster Prints Through 4 Color Poster Printing"
  },
  {
    "id": "6",
    "firstName": "Andre",
    "lastName": "Pope",
    "phoneNumber": "3012117721",
    "email": "andre@fullstacklabs.co",
    "notes": "Creating Remarkable Poster Prints Through 4 Color Poster Printing"
  },
  {
    "id": "7",
    "firstName": "Ollie",
    "lastName": "Poole",
    "phoneNumber": "3012117722",
    "email": "ollie@fullstacklabs.co",
    "notes": "Creating Remarkable Poster Prints Through 4 Color Poster Printing"
  }
]
